Aquarius 01/20 02/18
Pisces 02/19 03/20
Aries 03/21 04/20
Taurus 04/21 05/20
Gemini 05/21 06/21
Cancer 06/22 07/22
Leo 07/23 08/22
Virgo 08/23 09/22
Libra 09/23 10/22
Scorpio 10/23 11/2
Sagittarius 11/22 12/20
Capricorn 12/21 01/19